{
    "name" : "katex",
    "buildsystem": "simple",
    "build-options": {
        "env": {
            "DEST": "/app/share/iotas/media/"
        }
    },
    "build-commands": [
        "mkdir -p ${DEST}/js/",
        "cp katex.min.js ${DEST}/js/",
        "mkdir -p ${DEST}/css/web/",
        "cp katex.min.css ${DEST}/css/web/",
        "mkdir -p ${DEST}/css/web/fonts/",
        "cp fonts/*.woff2 ${DEST}/css/web/fonts/"
    ],
    "sources": [
        {
            "type": "archive",
            "url": "https://github.com/KaTeX/KaTeX/releases/download/v0.16.20/katex.tar.gz",
            "sha256": "e6072e8511332f8f094925d8fc46f52b74bd75776b44a4b587c534c7ba7bf6a2"
        }
    ]
}
